…
A few records have a date formats without day, which is used for the
delayed calculation. We should therefore allow for a delay of up to 30
days.

``` r
els_license_delay %>%
  filter(delay_in_days < 31) 
#> # A tibble: 126 x 3
#>    license_url                                    delay_in_days articles
#>    <chr>                                                  <int>    <int>
#>  1 creativecommons.org/licenses/by-nc-nd/4.0/                 0    37752
#>  2 creativecommons.org/licenses/by/4.0/                       0    26218
#>  3 creativecommons.org/licenses/by-nc-nd/3.0/                 0     1164
#>  4 creativecommons.org/licenses/by/3.0/                       0      805
#>  5 onlinelibrary.wiley.com/termsAndConditions#vor            18      501
#>  6 onlinelibrary.wiley.com/termsAndConditions#vor             7      417
#>  7 onlinelibrary.wiley.com/termsAndConditions#vor             0      398
#>  8 onlinelibrary.wiley.com/termsAndConditions#vor            25      383
#>  9 creativecommons.org/licenses/by-nc-nd/4.0/                 3      292
#> 10 creativecommons.org/licenses/by-nc-nd/4.0/                27      272
#> # … with 116 more rows
```
…
