…
### By invoice recipient

``` r
els_df %>%
  count(oa_sponsor_name) %>%
  arrange(desc(n))
```

    ## # A tibble: 89 x 2
    ##    oa_sponsor_name                                            n
    ##    <chr>                                                  <int>
    ##  1 <NA>                                                   68919
    ##  2 Engineering and Physical Sciences Research Council      4680
    ##  3 VSNU                                                    2854
    ##  4 Wellcome Trust                                          2555
    ##  5 European Research Council                               2020
    ##  6 Medical Research Council                                1978
    ##  7 SAAB                                                    1504
    ##  8 Natural Environment Research Council                    1358
    ##  9 Biotechnology and Biological Sciences Research Council  1183
    ## 10 Third-Party Sponsor                                     1152
    ## # … with 79 more rows
…
