…
missing journals (needs to be validated)

``` r
hybrid_volume %>% 
  filter(!issn %in% scopus_norm$issn) %>% 
  distinct(issn, container_title)
#> # A tibble: 22 x 2
#>    issn      container_title                                       
#>    <chr>     <chr>                                                 
#>  1 0045-7825 Computer Methods in Applied Mechanics and Engineering 
#>  2 0094-114X Mechanism and Machine Theory                          
#>  3 0304-4165 Biochimica et Biophysica Acta (BBA) - General Subjects
#>  4 0301-7516 International Journal of Mineral Processing           
#>  5 0300-9440 Progress in Organic Coatings                          
#>  6 1878-786X Journal de Chirurgie Viscérale                        
#>  7 1359-5113 Process Biochemistry                                  
#>  8 2387-0206 Medicina Clínica (English Edition)                    
#>  9 0020-7063 The International Journal of Accounting               
#> 10 0968-0004 Trends in Biochemical Sciences                        
#> # … with 12 more rows
```
…
hybrid_volume_subjects %>%
 # filter(container_title == "Journal of the American College of Cardiology") %>%
  group_by(top_level, articles, issued_year) %>%
  summarise(n_oa = sum(n_oa)) %>%
  ungroup() %>%
  group_by(top_level) %>%
  summarise(n_oa = sum(n_oa),
            n = sum(articles), .groups = "drop") %>%
  mutate(prop = n_oa / n) %>%
  arrange(desc(prop))
#> # A tibble: 28 x 4
#>    top_level                                     n_oa      n   prop
#>    <chr>                                        <int>  <dbl>  <dbl>
#>  1 Veterinary                                    2091  25292 0.0827
#>  2 Social Sciences                               6317  80535 0.0784
#>  3 Arts and Humanities                           1565  23795 0.0658
#>  4 Immunology and Microbiology                   5530  87145 0.0635
#>  5 Earth and Planetary Sciences                  4545  94792 0.0479
#>  6 Psychology                                    3052  64691 0.0472
#>  7 Agricultural and Biological Sciences          8044 175069 0.0459
#>  8 Biochemistry, Genetics and Molecular Biology 15881 349356 0.0455
#>  9 Economics, Econometrics and Finance           2071  46940 0.0441
#> 10 Neuroscience                                  5846 132617 0.0441
#> # … with 18 more rows
…
