…
    #> # A tibble: 6 x 3
    #>   country_factor     nn   prop
    #>   <fct>           <int>  <dbl>
    #> 1 United Kingdom  14238 0.587 
    #> 2 The Netherlands  2835 0.117 
    #> 3 EU               2364 0.0975
    #> 4 United States    1433 0.0591
    #> 5 Norway            694 0.0286
    #> 6 Other            2686 0.111

### wavied

    #> # A tibble: 33 x 3
    #>    oa_sponsor_name                     n    prop
    #>    <chr>                           <int>   <dbl>
    #>  1 <NA>                             2099 0.483  
    #>  2 Third-Party Sponsor               888 0.204  
    #>  3 Académie des Sciences             853 0.196  
    #>  4 Journal Society Affiliation       128 0.0295 
    #>  5 National Institutes of Health      84 0.0193 
    #>  6 Bill & Melinda Gates Foundation    74 0.0170 
    #>  7 Wellcome Trust                     47 0.0108 
    #>  8 Medical Research Council           36 0.00829
    #>  9 European Research Council          25 0.00575
    #> 10 Department of Health UK            17 0.00391
    #> # … with 23 more rows
…
